Chapter 4 Case Study | Applied Modeling of Hydrological Systems in Central Asia
…
4.1.2 Discharge Estimation in Ungauged Subcatchments

Before the closure of the Charvak dam and the subsequent filling of the reservoir in and after 1974, the HydroMet experts started a detailed 3-years measurement comparison campaign at Charvak gauge and at gauge 16279 in Khudaydod (see Figure 4.1). Both are located on Chatkal river. Charvak gauge had to be decommissioned after the closure of the dam because it got flooded.

The confluence of Koksu river with Charvak river is just upstream of the former Charvak gauge. Using daily data from the measurement comparisons campaign, the HydroMet experts could then relate Charvak gauge discharge to Khudaydod discharge using a linear relationship. At the same time, they were now able to relate Koksu discharge to the discharge at Chatkal River in Khudaydod in the following manner

\[
Q_{Koksu} \propto Q_{Charvak} - Q_{16279}
\]

We show the procedure here. After loading the riversCentralAsia Package as shown above, the relevant daily data from 01/01/1965 - 31/12/1967 can be loaded.

KoksuDischarge # load Data

## # A tibble: 1,976 x 4
##    date        data code    units
##    <date>     <dbl> <chr>   <chr>
##  1 1965-01-01  35.6 Charvak m3/s 
##  2 1965-01-02  35.6 Charvak m3/s 
##  3 1965-01-03  33   Charvak m3/s 
##  4 1965-01-04  33   Charvak m3/s 
##  5 1965-01-05  33   Charvak m3/s 
##  6 1965-01-06  33   Charvak m3/s 
##  7 1965-01-07  34.3 Charvak m3/s 
##  8 1965-01-08  35.6 Charvak m3/s 
##  9 1965-01-09  38.4 Charvak m3/s 
## 10 1965-01-10  35.6 Charvak m3/s 
## # … with 1,966 more rows

The data is stored in long format, meaning that measurements in time and for the two gauging stations are just stacked on top of each other in one long table. For the purpose here, we prefer the wide format where we have one date column with unique dates and then the data listed for each station in corresponding columns.

KoksuDischarge_wide <- KoksuDischarge %>% pivot_wider(id_cols = 'date',values_from = 'data',names_from = "code")
KoksuDischarge_wide

## # A tibble: 988 x 3
##    date       Charvak `16279`
##    <date>       <dbl>   <dbl>
##  1 1965-01-01    35.6    33.4
##  2 1965-01-02    35.6    32.4
##  3 1965-01-03    33      30.4
##  4 1965-01-04    33      29.4
##  5 1965-01-05    33      30.4
##  6 1965-01-06    33      30.4
##  7 1965-01-07    34.3    31.4
##  8 1965-01-08    35.6    32.4
##  9 1965-01-09    38.4    34.4
## 10 1965-01-10    35.6    32.4
## # … with 978 more rows

The runoff contribution of Koksu can be calculated in a simple manner.

# Adding Koksu discharge to the dataframe
KoksuDischarge_wide <- KoksuDischarge_wide %>% mutate(Koksu = Charvak - `16279`)
KoksuDischarge_wide

## # A tibble: 988 x 4
##    date       Charvak `16279` Koksu
##    <date>       <dbl>   <dbl> <dbl>
##  1 1965-01-01    35.6    33.4  2.2 
##  2 1965-01-02    35.6    32.4  3.2 
##  3 1965-01-03    33      30.4  2.6 
##  4 1965-01-04    33      29.4  3.6 
##  5 1965-01-05    33      30.4  2.6 
##  6 1965-01-06    33      30.4  2.6 
##  7 1965-01-07    34.3    31.4  2.90
##  8 1965-01-08    35.6    32.4  3.2 
##  9 1965-01-09    38.4    34.4  4   
## 10 1965-01-10    35.6    32.4  3.2 
## # … with 978 more rows
…
Please note, in the specification of the linear model we add the 0 term to force the regression through the origin. Hence, the discharge of Koksu River can be estimated to be

\[
Q_{Koksu} = 0.145 * Q_{Khudaydod}
\]

4.1.3 Analysis of Available Data

The riversCentralAsia Package provides available data of the gauging and meteorological stations in the Chirchik River Basin. Once this package is loaded, we are ready to start with data analysis.

ChirchikRiverBasin # load data

## # A tibble: 29,244 x 14
##    date        data  norm units type  code  station river basin resolution lon_UTM42
##    <date>     <dbl> <dbl> <chr> <fct> <fct> <chr>   <chr> <chr> <fct>          <dbl>
##  1 1932-01-10  48.8  38.8 m3s   Q     16279 Khuday… Chat… Chir… dec           598278
##  2 1932-01-20  48.4  37.5 m3s   Q     16279 Khuday… Chat… Chir… dec           598278
##  3 1932-01-31  42.4  36.6 m3s   Q     16279 Khuday… Chat… Chir… dec           598278
##  4 1932-02-10  43.7  36.4 m3s   Q     16279 Khuday… Chat… Chir… dec           598278
##  5 1932-02-20  44.2  36.3 m3s   Q     16279 Khuday… Chat… Chir… dec           598278
##  6 1932-02-29  47.7  36.9 m3s   Q     16279 Khuday… Chat… Chir… dec           598278
##  7 1932-03-10  54.1  39.4 m3s   Q     16279 Khuday… Chat… Chir… dec           598278
##  8 1932-03-20  63.2  47.6 m3s   Q     16279 Khuday… Chat… Chir… dec           598278
##  9 1932-03-31 103    60.5 m3s   Q     16279 Khuday… Chat… Chir… dec           598278
## 10 1932-04-10 103    86.4 m3s   Q     16279 Khuday… Chat… Chir… dec           598278
## # … with 29,234 more rows, and 3 more variables: lat_UTM42 <dbl>, altitude_masl <dbl>,
## #   basinSize_sqkm <dbl>
…
