Chapter 9 Hydrological Modeling: Empirical Models | Applied Modeling of Hydrological Systems in Central Asia
…
# Extras
library(DataExplorer)
library(fs)

# Kntting tables
library(knitr)

The riversCentralAsia Package makes selected data of the Chirchik River Basin available. These include discharge and meteorological data from the basin. Once this package is loaded, we are ready to start with data analysis.

ChirchikRiverBasin # load data

## # A tibble: 29,244 x 14
##    date        data  norm units type  code  station river basin resolution
##    <date>     <dbl> <dbl> <chr> <fct> <fct> <chr>   <chr> <chr> <fct>     
##  1 1932-01-10  48.8  38.8 m3s   Q     16279 Khuday… Chat… Chir… dec       
##  2 1932-01-20  48.4  37.5 m3s   Q     16279 Khuday… Chat… Chir… dec       
##  3 1932-01-31  42.4  36.6 m3s   Q     16279 Khuday… Chat… Chir… dec       
##  4 1932-02-10  43.7  36.4 m3s   Q     16279 Khuday… Chat… Chir… dec       
##  5 1932-02-20  44.2  36.3 m3s   Q     16279 Khuday… Chat… Chir… dec       
##  6 1932-02-29  47.7  36.9 m3s   Q     16279 Khuday… Chat… Chir… dec       
##  7 1932-03-10  54.1  39.4 m3s   Q     16279 Khuday… Chat… Chir… dec       
##  8 1932-03-20  63.2  47.6 m3s   Q     16279 Khuday… Chat… Chir… dec       
##  9 1932-03-31 103    60.5 m3s   Q     16279 Khuday… Chat… Chir… dec       
## 10 1932-04-10 103    86.4 m3s   Q     16279 Khuday… Chat… Chir… dec       
## # … with 29,234 more rows, and 4 more variables: lon_UTM42 <dbl>,
## #   lat_UTM42 <dbl>, altitude_masl <dbl>, basinSize_sqkm <dbl>
…
