3.2 Chirchik River Basin | Applied Modeling of Hydrological Systems in Central Asia
…
We show the procedure here. After loading the riversCentralAsia Package as shown above, the relevant daily data from 01/01/1965 - 31/12/1967 can be loaded.

KoksuDischargeDerivation <- riversCentralAsia:::KoksuDischargeDerivation # load Data

Please not that, unless otherwise mentioned, all data from discharge meteorological stations utilized in this book are from the Uzbek HMS.

The data is stored in long format, meaning that measurements in time and for the two gauging stations are just stacked on top of each other in one long table. For the purpose here, we prefer the wide format where we have one date column with unique dates and then the data listed for each station in corresponding columns.

KoksuDischarge_wide <- KoksuDischargeDerivation %>% pivot_wider(id_cols = 'date',values_from = 'data',names_from = "code")
KoksuDischarge_wide

## # A tibble: 988 x 3
##    date       Charvak `16279`
##    <date>       <dbl>   <dbl>
##  1 1965-01-01    35.6    33.4
##  2 1965-01-02    35.6    32.4
##  3 1965-01-03    33      30.4
##  4 1965-01-04    33      29.4
##  5 1965-01-05    33      30.4
##  6 1965-01-06    33      30.4
##  7 1965-01-07    34.3    31.4
##  8 1965-01-08    35.6    32.4
##  9 1965-01-09    38.4    34.4
## 10 1965-01-10    35.6    32.4
## # … with 978 more rows

The runoff contribution of Koksu can be calculated in a simple manner.

# Adding Koksu discharge to the dataframe
KoksuDischarge_wide <- KoksuDischarge_wide %>% mutate(Koksu = Charvak - `16279`)
KoksuDischarge_wide

## # A tibble: 988 x 4
##    date       Charvak `16279` Koksu
##    <date>       <dbl>   <dbl> <dbl>
##  1 1965-01-01    35.6    33.4  2.2 
##  2 1965-01-02    35.6    32.4  3.2 
##  3 1965-01-03    33      30.4  2.6 
##  4 1965-01-04    33      29.4  3.6 
##  5 1965-01-05    33      30.4  2.6 
##  6 1965-01-06    33      30.4  2.6 
##  7 1965-01-07    34.3    31.4  2.90
##  8 1965-01-08    35.6    32.4  3.2 
##  9 1965-01-09    38.4    34.4  4   
## 10 1965-01-10    35.6    32.4  3.2 
## # … with 978 more rows
…
