3.2 Gunt River Basin | Applied Modeling of Hydrological Systems in Central Asia
…
3.2.2 Key Basin Characteristics

For the analysis of the key hydro-climatological characteristics, we first load the available decadal and monthly station data3. The data used in this Chapter can be accessed on the public GitHub repository Applied Modeling of Hydrological Systems in Central Asia and the ./data/AmuDarya/Gunt/ folder in there.

3.2.2.1 Hydrology

First, we load the available data into R.

# Load data records
fPath = fPath <- './data/AmuDarya/Gunt'
fName = '/StationData/gunt_data_cleaned.Rds'
data <- read_rds(paste0(fPath,fName))
data

## # A tibble: 23,352 x 10
##    date        data  norm units type  code  station     river basin  resolution
##    <date>     <dbl> <dbl> <chr> <chr> <chr> <chr>       <chr> <chr>  <fct>     
##  1 1940-01-31  30.5  32.9 m3/s  Q     17050 Gunt_Khorog Gunt  Pyandz mon       
##  2 1940-02-29  27.3  30.1 m3/s  Q     17050 Gunt_Khorog Gunt  Pyandz mon       
##  3 1940-03-31  24.9  28.4 m3/s  Q     17050 Gunt_Khorog Gunt  Pyandz mon       
##  4 1940-04-30  26.4  30.7 m3/s  Q     17050 Gunt_Khorog Gunt  Pyandz mon       
##  5 1940-05-31  59    68.5 m3/s  Q     17050 Gunt_Khorog Gunt  Pyandz mon       
##  6 1940-06-30 309   232.  m3/s  Q     17050 Gunt_Khorog Gunt  Pyandz mon       
##  7 1940-07-31 224   319.  m3/s  Q     17050 Gunt_Khorog Gunt  Pyandz mon       
##  8 1940-08-31 201   237.  m3/s  Q     17050 Gunt_Khorog Gunt  Pyandz mon       
##  9 1940-09-30 121   117.  m3/s  Q     17050 Gunt_Khorog Gunt  Pyandz mon       
## 10 1940-10-31  60.8  63.1 m3/s  Q     17050 Gunt_Khorog Gunt  Pyandz mon       
## # … with 23,342 more rows
…
Most of the data are only available at monthly resolution.

As compared to the Chirchik river basin, we only have one long-term operational gauging station in the Gunt river basin. The Station code is 17050. Its discharge data can be accessed and extracted from the Gunt dataset in the following way

q_17050_mon <- data %>% filter(type == "Q" & code == '17050' & resolution == 'mon')
q_17050_mon

## # A tibble: 972 x 10
##    date        data  norm units type  code  station     river basin  resolution
##    <date>     <dbl> <dbl> <chr> <chr> <chr> <chr>       <chr> <chr>  <fct>     
##  1 1940-01-31  30.5  32.9 m3/s  Q     17050 Gunt_Khorog Gunt  Pyandz mon       
##  2 1940-02-29  27.3  30.1 m3/s  Q     17050 Gunt_Khorog Gunt  Pyandz mon       
##  3 1940-03-31  24.9  28.4 m3/s  Q     17050 Gunt_Khorog Gunt  Pyandz mon       
##  4 1940-04-30  26.4  30.7 m3/s  Q     17050 Gunt_Khorog Gunt  Pyandz mon       
##  5 1940-05-31  59    68.5 m3/s  Q     17050 Gunt_Khorog Gunt  Pyandz mon       
##  6 1940-06-30 309   232.  m3/s  Q     17050 Gunt_Khorog Gunt  Pyandz mon       
##  7 1940-07-31 224   319.  m3/s  Q     17050 Gunt_Khorog Gunt  Pyandz mon       
##  8 1940-08-31 201   237.  m3/s  Q     17050 Gunt_Khorog Gunt  Pyandz mon       
##  9 1940-09-30 121   117.  m3/s  Q     17050 Gunt_Khorog Gunt  Pyandz mon       
## 10 1940-10-31  60.8  63.1 m3/s  Q     17050 Gunt_Khorog Gunt  Pyandz mon       
## # … with 962 more rows
…
